/*
WARNING: Do NOT edit the input and output ports in this file in a text
editor if you plan to continue editing the block that represents it in
the Block Editor! File corruption is VERY likely to occur.
*/
/*
Copyright (C) 1991-2013 Altera Corporation
Your use of Altera Corporation's design tools, logic functions 
and other software and tools, and its AMPP partner logic 
functions, and any output files from any of the foregoing 
(including device programming or simulation files), and any 
associated documentation or information are expressly subject 
to the terms and conditions of the Altera Program License 
Subscription Agreement, Altera MegaCore Function License 
Agreement, or other applicable license agreement, including, 
without limitation, that your use is for the sole purpose of 
programming logic devices manufactured by Altera and sold by 
Altera or its authorized distributors.  Please refer to the 
applicable agreement for further details.
*/
(header "graphic" (version "1.4"))
(pin
	(input)
	(rect 112 88 288 104)
	(text "INPUT" (rect 133 0 161 10)(font "Arial" (font_size 6)))
	(text "Clk" (rect 9 0 25 12)(font "Arial" ))
	(pt 176 8)
	(drawing
		(line (pt 92 12)(pt 117 12))
		(line (pt 92 4)(pt 117 4))
		(line (pt 121 8)(pt 176 8))
		(line (pt 92 12)(pt 92 4))
		(line (pt 117 4)(pt 121 8))
		(line (pt 117 12)(pt 121 8))
	)
	(text "VCC" (rect 136 7 156 17)(font "Arial" (font_size 6)))
	(annotation_block (location)(rect 1208 552 1264 568))
)
(pin
	(input)
	(rect 120 216 288 232)
	(text "INPUT" (rect 125 0 153 10)(font "Arial" (font_size 6)))
	(text "Rst" (rect 6 0 23 12)(font "Arial" ))
	(pt 168 8)
	(drawing
		(line (pt 84 12)(pt 109 12))
		(line (pt 84 4)(pt 109 4))
		(line (pt 113 8)(pt 168 8))
		(line (pt 84 12)(pt 84 4))
		(line (pt 109 4)(pt 113 8))
		(line (pt 109 12)(pt 113 8))
	)
	(text "VCC" (rect 128 7 148 17)(font "Arial" (font_size 6)))
)
(pin
	(output)
	(rect 568 -160 744 -144)
	(text "OUTPUT" (rect 1 0 39 10)(font "Arial" (font_size 6)))
	(text "RA1[3..0]" (rect 90 0 137 12)(font "Arial" ))
	(pt 0 8)
	(drawing
		(line (pt 0 8)(pt 52 8))
		(line (pt 52 4)(pt 78 4))
		(line (pt 52 12)(pt 78 12))
		(line (pt 52 12)(pt 52 4))
		(line (pt 78 4)(pt 82 8))
		(line (pt 82 8)(pt 78 12))
		(line (pt 78 12)(pt 82 8))
	)
	(annotation_block (location)(rect 2152 288 2216 384))
)
(symbol
	(rect 328 -72 392 8)
	(text "DFF" (rect 1 0 19 10)(font "Arial" (font_size 6)))
	(text "inst2" (rect 3 68 26 80)(font "Arial" ))
	(port
		(pt 32 80)
		(input)
		(text "CLRN" (rect 21 59 44 71)(font "Courier New" (bold)))
		(text "CLRN" (rect 21 58 44 70)(font "Courier New" (bold)))
		(line (pt 32 80)(pt 32 76))
	)
	(port
		(pt 0 40)
		(input)
		(text "CLK" (rect 3 29 20 41)(font "Courier New" (bold))(invisible))
		(text "CLK" (rect 3 29 20 41)(font "Courier New" (bold))(invisible))
		(line (pt 0 40)(pt 12 40))
	)
	(port
		(pt 0 24)
		(input)
		(text "D" (rect 14 20 19 32)(font "Courier New" (bold)))
		(text "D" (rect 14 20 19 32)(font "Courier New" (bold)))
		(line (pt 0 24)(pt 12 24))
	)
	(port
		(pt 32 0)
		(input)
		(text "PRN" (rect 24 13 41 25)(font "Courier New" (bold)))
		(text "PRN" (rect 24 11 41 23)(font "Courier New" (bold)))
		(line (pt 32 4)(pt 32 0))
	)
	(port
		(pt 64 24)
		(output)
		(text "Q" (rect 45 20 50 32)(font "Courier New" (bold)))
		(text "Q" (rect 43 20 48 32)(font "Courier New" (bold)))
		(line (pt 52 24)(pt 64 24))
	)
	(drawing
		(line (pt 12 12)(pt 52 12))
		(line (pt 12 68)(pt 52 68))
		(line (pt 52 68)(pt 52 12))
		(line (pt 12 68)(pt 12 12))
		(line (pt 19 40)(pt 12 47))
		(line (pt 12 32)(pt 20 40))
		(circle (rect 28 4 36 12))
		(circle (rect 28 68 36 76))
	)
)
(symbol
	(rect 328 -176 392 -96)
	(text "DFF" (rect 1 0 19 10)(font "Arial" (font_size 6)))
	(text "inst3" (rect 3 68 26 80)(font "Arial" ))
	(port
		(pt 32 80)
		(input)
		(text "CLRN" (rect 21 59 44 71)(font "Courier New" (bold)))
		(text "CLRN" (rect 21 58 44 70)(font "Courier New" (bold)))
		(line (pt 32 80)(pt 32 76))
	)
	(port
		(pt 0 40)
		(input)
		(text "CLK" (rect 3 29 20 41)(font "Courier New" (bold))(invisible))
		(text "CLK" (rect 3 29 20 41)(font "Courier New" (bold))(invisible))
		(line (pt 0 40)(pt 12 40))
	)
	(port
		(pt 0 24)
		(input)
		(text "D" (rect 14 20 19 32)(font "Courier New" (bold)))
		(text "D" (rect 14 20 19 32)(font "Courier New" (bold)))
		(line (pt 0 24)(pt 12 24))
	)
	(port
		(pt 32 0)
		(input)
		(text "PRN" (rect 24 13 41 25)(font "Courier New" (bold)))
		(text "PRN" (rect 24 11 41 23)(font "Courier New" (bold)))
		(line (pt 32 4)(pt 32 0))
	)
	(port
		(pt 64 24)
		(output)
		(text "Q" (rect 45 20 50 32)(font "Courier New" (bold)))
		(text "Q" (rect 43 20 48 32)(font "Courier New" (bold)))
		(line (pt 52 24)(pt 64 24))
	)
	(drawing
		(line (pt 12 12)(pt 52 12))
		(line (pt 12 68)(pt 52 68))
		(line (pt 52 68)(pt 52 12))
		(line (pt 12 68)(pt 12 12))
		(line (pt 19 40)(pt 12 47))
		(line (pt 12 32)(pt 20 40))
		(circle (rect 28 4 36 12))
		(circle (rect 28 68 36 76))
	)
)
(symbol
	(rect 328 32 392 112)
	(text "DFF" (rect 1 0 19 10)(font "Arial" (font_size 6)))
	(text "inst4" (rect 3 68 26 80)(font "Arial" ))
	(port
		(pt 32 80)
		(input)
		(text "CLRN" (rect 21 59 44 71)(font "Courier New" (bold)))
		(text "CLRN" (rect 21 58 44 70)(font "Courier New" (bold)))
		(line (pt 32 80)(pt 32 76))
	)
	(port
		(pt 0 40)
		(input)
		(text "CLK" (rect 3 29 20 41)(font "Courier New" (bold))(invisible))
		(text "CLK" (rect 3 29 20 41)(font "Courier New" (bold))(invisible))
		(line (pt 0 40)(pt 12 40))
	)
	(port
		(pt 0 24)
		(input)
		(text "D" (rect 14 20 19 32)(font "Courier New" (bold)))
		(text "D" (rect 14 20 19 32)(font "Courier New" (bold)))
		(line (pt 0 24)(pt 12 24))
	)
	(port
		(pt 32 0)
		(input)
		(text "PRN" (rect 24 13 41 25)(font "Courier New" (bold)))
		(text "PRN" (rect 24 11 41 23)(font "Courier New" (bold)))
		(line (pt 32 4)(pt 32 0))
	)
	(port
		(pt 64 24)
		(output)
		(text "Q" (rect 45 20 50 32)(font "Courier New" (bold)))
		(text "Q" (rect 43 20 48 32)(font "Courier New" (bold)))
		(line (pt 52 24)(pt 64 24))
	)
	(drawing
		(line (pt 12 12)(pt 52 12))
		(line (pt 12 68)(pt 52 68))
		(line (pt 52 68)(pt 52 12))
		(line (pt 12 68)(pt 12 12))
		(line (pt 19 40)(pt 12 47))
		(line (pt 12 32)(pt 20 40))
		(circle (rect 28 4 36 12))
		(circle (rect 28 68 36 76))
	)
)
(symbol
	(rect 344 -208 376 -192)
	(text "VCC" (rect 7 0 27 10)(font "Arial" (font_size 6)))
	(text "inst5" (rect 3 5 26 17)(font "Arial" )(invisible))
	(port
		(pt 16 16)
		(output)
		(text "1" (rect 19 7 24 19)(font "Courier New" (bold))(invisible))
		(text "1" (rect 19 7 24 19)(font "Courier New" (bold))(invisible))
		(line (pt 16 16)(pt 16 8))
	)
	(drawing
		(line (pt 8 8)(pt 24 8))
	)
)
(symbol
	(rect 328 136 392 216)
	(text "DFF" (rect 1 0 19 10)(font "Arial" (font_size 6)))
	(text "inst1" (rect 3 68 26 80)(font "Arial" ))
	(port
		(pt 32 80)
		(input)
		(text "CLRN" (rect 21 59 44 71)(font "Courier New" (bold)))
		(text "CLRN" (rect 21 58 44 70)(font "Courier New" (bold)))
		(line (pt 32 80)(pt 32 76))
	)
	(port
		(pt 0 40)
		(input)
		(text "CLK" (rect 3 29 20 41)(font "Courier New" (bold))(invisible))
		(text "CLK" (rect 3 29 20 41)(font "Courier New" (bold))(invisible))
		(line (pt 0 40)(pt 12 40))
	)
	(port
		(pt 0 24)
		(input)
		(text "D" (rect 14 20 19 32)(font "Courier New" (bold)))
		(text "D" (rect 14 20 19 32)(font "Courier New" (bold)))
		(line (pt 0 24)(pt 12 24))
	)
	(port
		(pt 32 0)
		(input)
		(text "PRN" (rect 24 13 41 25)(font "Courier New" (bold)))
		(text "PRN" (rect 24 11 41 23)(font "Courier New" (bold)))
		(line (pt 32 4)(pt 32 0))
	)
	(port
		(pt 64 24)
		(output)
		(text "Q" (rect 45 20 50 32)(font "Courier New" (bold)))
		(text "Q" (rect 43 20 48 32)(font "Courier New" (bold)))
		(line (pt 52 24)(pt 64 24))
	)
	(drawing
		(line (pt 12 12)(pt 52 12))
		(line (pt 12 68)(pt 52 68))
		(line (pt 52 68)(pt 52 12))
		(line (pt 12 68)(pt 12 12))
		(line (pt 19 40)(pt 12 47))
		(line (pt 12 32)(pt 20 40))
		(circle (rect 28 4 36 12))
		(circle (rect 28 68 36 76))
	)
)
(symbol
	(rect 120 -96 240 16)
	(text "RAOneLogic" (rect 5 0 66 12)(font "Arial" ))
	(text "inst" (rect 8 96 25 108)(font "Arial" ))
	(port
		(pt 0 80)
		(input)
		(text "y3" (rect 0 0 12 12)(font "Arial" ))
		(text "y3" (rect 21 75 33 87)(font "Arial" ))
		(line (pt 0 80)(pt 16 80))
	)
	(port
		(pt 0 64)
		(input)
		(text "y2" (rect 0 0 12 12)(font "Arial" ))
		(text "y2" (rect 21 59 33 71)(font "Arial" ))
		(line (pt 0 64)(pt 16 64))
	)
	(port
		(pt 0 48)
		(input)
		(text "y1" (rect 0 0 12 12)(font "Arial" ))
		(text "y1" (rect 21 43 33 55)(font "Arial" ))
		(line (pt 0 48)(pt 16 48))
	)
	(port
		(pt 0 32)
		(input)
		(text "y0" (rect 0 0 12 12)(font "Arial" ))
		(text "y0" (rect 21 27 33 39)(font "Arial" ))
		(line (pt 0 32)(pt 16 32))
	)
	(port
		(pt 120 80)
		(output)
		(text "D3" (rect 0 0 14 12)(font "Arial" ))
		(text "D3" (rect 88 75 102 87)(font "Arial" ))
		(line (pt 120 80)(pt 104 80))
	)
	(port
		(pt 120 64)
		(output)
		(text "D2" (rect 0 0 14 12)(font "Arial" ))
		(text "D2" (rect 88 59 102 71)(font "Arial" ))
		(line (pt 120 64)(pt 104 64))
	)
	(port
		(pt 120 48)
		(output)
		(text "D1" (rect 0 0 14 12)(font "Arial" ))
		(text "D1" (rect 88 43 102 55)(font "Arial" ))
		(line (pt 120 48)(pt 104 48))
	)
	(port
		(pt 120 32)
		(output)
		(text "D0" (rect 0 0 14 12)(font "Arial" ))
		(text "D0" (rect 88 27 102 39)(font "Arial" ))
		(line (pt 120 32)(pt 104 32))
	)
	(drawing
		(rectangle (rect 16 16 104 96))
	)
)
(connector
	(pt 400 -80)
	(pt 360 -80)
)
(connector
	(pt 320 -32)
	(pt 328 -32)
)
(connector
	(pt 360 -80)
	(pt 360 -72)
)
(connector
	(pt 240 -32)
	(pt 312 -32)
)
(connector
	(pt 240 -48)
	(pt 328 -48)
)
(connector
	(pt 360 -184)
	(pt 400 -184)
)
(connector
	(pt 328 -136)
	(pt 320 -136)
)
(connector
	(pt 328 -152)
	(pt 312 -152)
)
(connector
	(pt 120 -64)
	(pt 104 -64)
)
(connector
	(pt 104 -64)
	(pt 104 -224)
)
(connector
	(pt 120 -48)
	(pt 96 -48)
)
(connector
	(pt 96 -48)
	(pt 96 -232)
)
(connector
	(pt 120 -32)
	(pt 88 -32)
)
(connector
	(pt 88 -32)
	(pt 88 -240)
)
(connector
	(pt 80 -16)
	(pt 80 -248)
)
(connector
	(pt 120 -16)
	(pt 80 -16)
)
(connector
	(pt 312 -64)
	(pt 312 -152)
)
(connector
	(pt 408 -152)
	(pt 408 -224)
)
(connector
	(pt 408 -224)
	(pt 104 -224)
)
(connector
	(pt 416 -48)
	(pt 416 -232)
)
(connector
	(pt 416 -232)
	(pt 96 -232)
)
(connector
	(pt 240 -64)
	(pt 312 -64)
)
(connector
	(pt 400 24)
	(pt 360 24)
)
(connector
	(pt 320 72)
	(pt 328 72)
)
(connector
	(pt 360 24)
	(pt 360 32)
)
(connector
	(pt 312 56)
	(pt 328 56)
)
(connector
	(pt 312 -32)
	(pt 312 56)
)
(connector
	(pt 88 -240)
	(pt 424 -240)
)
(connector
	(pt 424 -240)
	(pt 424 56)
)
(connector
	(pt 240 -16)
	(pt 304 -16)
)
(connector
	(pt 360 128)
	(pt 400 128)
)
(connector
	(pt 320 176)
	(pt 328 176)
)
(connector
	(pt 360 128)
	(pt 360 136)
)
(connector
	(pt 304 -16)
	(pt 304 160)
)
(connector
	(pt 304 160)
	(pt 328 160)
)
(connector
	(pt 432 -248)
	(pt 432 160)
)
(connector
	(pt 80 -248)
	(pt 432 -248)
)
(connector
	(pt 360 -96)
	(pt 360 -88)
)
(connector
	(pt 360 8)
	(pt 360 16)
)
(connector
	(pt 360 16)
	(pt 448 16)
)
(connector
	(pt 360 112)
	(pt 360 120)
)
(connector
	(pt 360 -192)
	(pt 360 -184)
)
(connector
	(pt 360 -184)
	(pt 360 -176)
)
(connector
	(pt 320 -136)
	(pt 320 -32)
)
(connector
	(pt 320 -32)
	(pt 320 72)
)
(connector
	(pt 400 -184)
	(pt 400 -80)
)
(connector
	(pt 400 -80)
	(pt 400 24)
)
(connector
	(pt 400 24)
	(pt 400 128)
)
(connector
	(pt 448 -88)
	(pt 448 16)
)
(connector
	(pt 360 -88)
	(pt 448 -88)
)
(connector
	(pt 360 216)
	(pt 360 224)
)
(connector
	(pt 360 120)
	(pt 448 120)
)
(connector
	(pt 448 16)
	(pt 448 120)
)
(connector
	(pt 448 120)
	(pt 448 224)
)
(connector
	(pt 392 -152)
	(pt 408 -152)
)
(connector
	(text "RA1[0]" (rect 466 -168 500 -156)(font "Arial" ))
	(pt 408 -152)
	(pt 504 -152)
)
(connector
	(pt 392 -48)
	(pt 416 -48)
)
(connector
	(text "RA1[1]" (rect 466 -64 500 -52)(font "Arial" ))
	(pt 416 -48)
	(pt 504 -48)
)
(connector
	(pt 392 56)
	(pt 424 56)
)
(connector
	(text "RA1[2]" (rect 466 32 500 44)(font "Arial" ))
	(pt 424 56)
	(pt 504 56)
)
(connector
	(pt 392 160)
	(pt 432 160)
)
(connector
	(pt 504 -152)
	(pt 504 -48)
	(bus)
)
(connector
	(pt 504 -48)
	(pt 504 56)
	(bus)
)
(connector
	(pt 504 56)
	(pt 504 160)
	(bus)
)
(connector
	(text "RA1[3..0]" (rect 514 -168 561 -156)(font "Arial" ))
	(pt 504 -152)
	(pt 568 -152)
	(bus)
)
(connector
	(text "RA1[3]" (rect 466 144 500 156)(font "Arial" ))
	(pt 432 160)
	(pt 504 160)
)
(connector
	(pt 320 96)
	(pt 288 96)
)
(connector
	(pt 320 72)
	(pt 320 96)
)
(connector
	(pt 320 96)
	(pt 320 176)
)
(connector
	(pt 288 224)
	(pt 360 224)
)
(connector
	(pt 360 224)
	(pt 448 224)
)
(junction (pt 360 -184))
(junction (pt 320 -32))
(junction (pt 320 72))
(junction (pt 320 96))
(junction (pt 400 -80))
(junction (pt 400 24))
(junction (pt 448 16))
(junction (pt 448 120))
(junction (pt 432 160))
(junction (pt 424 56))
(junction (pt 408 -152))
(junction (pt 416 -48))
(junction (pt 504 -152))
(junction (pt 504 -48))
(junction (pt 504 56))
(junction (pt 360 224))
